Project1
…
Untidying and Tidying

mental <- mental %>% pivot_longer(c("reps_lower", "reps_upper"), 
    names_to = "reps", values_to = "reps values")
mental <- mental %>% pivot_wider(names_from = "reps", values_from = "reps values")

mental

## # A tibble: 136 x 5
##    Breed                 Classification obey  reps_lower reps_upper
##    <chr>                 <chr>          <chr>      <dbl>      <dbl>
##  1 Border Collie         Brightest Dogs 95%            1          4
##  2 Poodle                Brightest Dogs 95%            1          4
##  3 German Shepherd       Brightest Dogs 95%            1          4
##  4 Golden Retriever      Brightest Dogs 95%            1          4
##  5 Doberman Pinscher     Brightest Dogs 95%            1          4
##  6 Shetland Sheepdog     Brightest Dogs 95%            1          4
##  7 Labrador Retriever    Brightest Dogs 95%            1          4
##  8 Papillon              Brightest Dogs 95%            1          4
##  9 Rottweiler            Brightest Dogs 95%            1          4
## 10 Australian Cattle Dog Brightest Dogs 95%            1          4
## # … with 126 more rows

physical <- physical %>% pivot_longer(c("height_low_inches", 
    "height_high_inches"), names_to = "height", values_to = "height values")
physical <- physical %>% pivot_wider(names_from = "height", values_from = "height values")

physical <- physical %>% pivot_longer(c("weight_low_lbs", "weight_high_lbs"), 
    names_to = "weight", values_to = "weight values")
physical <- physical %>% pivot_wider(names_from = "weight", values_from = "weight values")

physical

## # A tibble: 150 x 5
##    Breed        height_low_inch… height_high_inc… weight_low_lbs weight_high_lbs
##    <chr>        <chr>            <chr>            <chr>          <chr>          
##  1 Akita        26               28               80             120            
##  2 Anatolian S… 27               29               100            150            
##  3 Bernese Mou… 23               27               85             110            
##  4 Bloodhound   24               26               80             120            
##  5 Borzoi       26               28               70             100            
##  6 Bullmastiff  25               27               100            130            
##  7 Great Dane   32               32               120            160            
##  8 Great Pyren… 27               32               95             120            
##  9 Great Swiss… 23               28               130            150            
## 10 Irish Wolfh… 28               35               90             150            
## # … with 140 more rows

Both datasets were already tidy when they were obtained. So in this section, I untidied and then tidied them again. For the first dataset, I untidied the "reps_lower" and "reps_higher" variables by combining them into one column through pivot_longer. Then, I separated them again to tidy using pivot_wider.

For the second dataset, I untidied more columns. I combined "height_low_inches with "height_high_inches" into one column, and "weight_low_lbs with "weight_high_lbs" into another column using pivot_longer. Then, I separated all 4 variables into individual columns in order to tidy them back, using pivot_wider. This allowed each observation to have its own row and each variable its own column.

Joining

## # A tibble: 104 x 8
##    Breed Classification reps_lower reps_upper height_low_inch… height_high_inc…
##    <chr> <chr>               <dbl>      <dbl>            <dbl>            <dbl>
##  1 Bord… Brightest Dogs          1          4               19               21
##  2 Gold… Brightest Dogs          1          4               21               24
##  3 Dobe… Brightest Dogs          1          4               26               28
##  4 Labr… Brightest Dogs          1          4               21               24
##  5 Papi… Brightest Dogs          1          4                8               11
##  6 Rott… Brightest Dogs          1          4               22               27
##  7 Aust… Brightest Dogs          1          4               17               20
##  8 Engl… Excellent Wor…          5         15               20               20
##  9 Schi… Excellent Wor…          5         15               10               13
## 10 Belg… Excellent Wor…          5         15               22               26
## # … with 94 more rows, and 2 more variables: weight_low_lbs <dbl>,
## #   weight_high_lbs <dbl>
…
dogs %>% group_by(Classification) %>% summarize(max(weight_high_lbs))

## # A tibble: 6 x 2
##   Classification                                  `max(weight_high_lbs)`
##   <chr>                                                            <dbl>
## 1 Above Average Working Dogs                                         150
## 2 Average Working/Obedience Intelligence                             160
## 3 Brightest Dogs                                                     110
## 4 Excellent Working Dogs                                             110
## 5 Fair Working/Obedience Intelligence                                190
## 6 Lowest Degree of Working/Obedience Intelligence                    190

dogs %>% mutate(height_range = height_high_inches - height_low_inches)

## # A tibble: 104 x 9
##    Breed Classification reps_lower reps_upper height_low_inch… height_high_inc…
##    <chr> <chr>               <dbl>      <dbl>            <dbl>            <dbl>
##  1 Bord… Brightest Dogs          1          4               19               21
##  2 Gold… Brightest Dogs          1          4               21               24
##  3 Dobe… Brightest Dogs          1          4               26               28
##  4 Labr… Brightest Dogs          1          4               21               24
##  5 Papi… Brightest Dogs          1          4                8               11
##  6 Rott… Brightest Dogs          1          4               22               27
##  7 Aust… Brightest Dogs          1          4               17               20
##  8 Engl… Excellent Wor…          5         15               20               20
##  9 Schi… Excellent Wor…          5         15               10               13
## 10 Belg… Excellent Wor…          5         15               22               26
## # … with 94 more rows, and 3 more variables: weight_low_lbs <dbl>,
## #   weight_high_lbs <dbl>, height_range <dbl>
…
